\relax 
\citation{Amarnath2009}
\citation{Daouadji2010}
\citation{Ghijsen}
\@writefile{toc}{\contentsline {section}{\numberline {I}Introduction}{1}}
\newlabel{sec:introduction}{{I}{1}}
\@writefile{toc}{\contentsline {section}{\numberline {II}The EKB - Energy Knowledge Base}{1}}
\newlabel{sec:ekb}{{II}{1}}
\citation{Meisner2009}
\@writefile{toc}{\contentsline {subsection}{\numberline {\unhbox \voidb@x \hbox {II-A}}System Design}{2}}
\newlabel{sec:Architecture}{{\unhbox \voidb@x \hbox {II-A}}{2}}
\@writefile{lof}{\contentsline {figure}{\numberline {1}{\ignorespaces The sequence diagram of processing a query \relax }}{2}}
\providecommand*\caption@xref[2]{\@setref\relax\@undefined{#1}}
\newlabel{fig:ekb}{{1}{2}}
\@writefile{toc}{\contentsline {section}{\numberline {III}Energy Description Language - EDL}{2}}
\newlabel{sec:schema}{{III}{2}}
\citation{zhao}
\@writefile{lof}{\contentsline {figure}{\numberline {2}{\ignorespaces The Energy Description Language - EDL and its three main parts: the EnergyMetric class and subclasses (in yellow), the MonitorComponent class and its subclasses (in orange) and the ResourceEnergyDescription and it subclasses (in gray)\relax }}{3}}
\newlabel{fig:edl}{{2}{3}}
\@writefile{toc}{\contentsline {subsection}{\numberline {\unhbox \voidb@x \hbox {III-A}}EnergyMetric}{3}}
\newlabel{subsec:energymetric}{{\unhbox \voidb@x \hbox {III-A}}{3}}
\@writefile{toc}{\contentsline {subsection}{\numberline {\unhbox \voidb@x \hbox {III-B}}MonitorComponent}{3}}
\@writefile{toc}{\contentsline {subsection}{\numberline {\unhbox \voidb@x \hbox {III-C}}Resource Energy Description}{3}}
\citation{das-4}
\bibstyle{IEEEtran}
\bibdata{IEEEabrv,eqLibShort}
\bibcite{Amarnath2009}{1}
\bibcite{Daouadji2010}{2}
\bibcite{Ghijsen}{3}
\bibcite{Meisner2009}{4}
\bibcite{zhao}{5}
\bibcite{das-4}{6}
\@writefile{toc}{\contentsline {section}{\numberline {IV}Query Service}{4}}
\newlabel{sec:query-service}{{IV}{4}}
\@writefile{lof}{\contentsline {figure}{\numberline {3}{\ignorespaces  Query Response Times for Various-size Triple-Stores \relax }}{4}}
\newlabel{fig:querys}{{3}{4}}
\@writefile{toc}{\contentsline {section}{\numberline {V}Conclusions and future work}{4}}
\newlabel{sec:futurework}{{V}{4}}
\@writefile{toc}{\contentsline {section}{References}{4}}
