This is BibTeX, Version 0.99d (TeX Live 2011)
Capacity: max_strings=35307, hash_size=35307, hash_prime=30011
The top-level auxiliary file: complete-article.aux
The style file: IEEEtran.bst
Reallocated singl_function (elt_size=4) to 100 items from 50.
Reallocated singl_function (elt_size=4) to 100 items from 50.
Reallocated singl_function (elt_size=4) to 100 items from 50.
Reallocated wiz_functions (elt_size=4) to 6000 items from 3000.
Reallocated singl_function (elt_size=4) to 100 items from 50.
Database file #1: IEEEabrv.bib
Database file #2: eqLib.bib
-- IEEEtran.bst version 1.13 (2008/09/30) by Michael Shell.
-- http://www.michaelshell.org/tex/ieeetran/bibtex/
-- See the "IEEEtran_bst_HOWTO.pdf" manual for usage information.

Done.
<<<<<<< HEAD
You've used 17 entries,
            4039 wiz_defined-function locations,
            1330 strings with 18622 characters,
and the built_in function-call counts, 14030 in all, are:
= -- 1093
> -- 348
< -- 118
+ -- 187
- -- 59
* -- 695
:= -- 2045
add.period$ -- 37
call.type$ -- 17
change.case$ -- 19
chr.to.int$ -- 291
cite$ -- 17
duplicate$ -- 992
empty$ -- 1172
format.name$ -- 73
if$ -- 3238
int.to.chr$ -- 0
int.to.str$ -- 17
missing$ -- 181
newline$ -- 84
num.names$ -- 18
pop$ -- 444
preamble$ -- 1
purify$ -- 0
quote$ -- 2
skip$ -- 1049
stack$ -- 0
substring$ -- 692
swap$ -- 812
text.length$ -- 21
text.prefix$ -- 0
top$ -- 5
type$ -- 17
warning$ -- 0
while$ -- 73
width$ -- 19
write$ -- 194
=======
You've used 24 entries,
            4039 wiz_defined-function locations,
            1364 strings with 19561 characters,
and the built_in function-call counts, 17925 in all, are:
= -- 1375
> -- 443
< -- 144
+ -- 239
- -- 76
* -- 845
:= -- 2598
add.period$ -- 49
call.type$ -- 24
change.case$ -- 25
chr.to.int$ -- 354
cite$ -- 24
duplicate$ -- 1295
empty$ -- 1530
format.name$ -- 94
if$ -- 4145
int.to.chr$ -- 0
int.to.str$ -- 24
missing$ -- 244
newline$ -- 105
num.names$ -- 23
pop$ -- 622
preamble$ -- 1
purify$ -- 0
quote$ -- 2
skip$ -- 1345
stack$ -- 0
substring$ -- 843
swap$ -- 1040
text.length$ -- 26
text.prefix$ -- 0
top$ -- 5
type$ -- 24
warning$ -- 0
while$ -- 88
width$ -- 26
write$ -- 247
>>>>>>> 13dfd2689e0e1caadf32d7629be732e4ae747e02
