\relax 
\citation{greenhost}
\citation{Amarnath2009}
\citation{Youseff2008}
\@writefile{toc}{\contentsline {section}{\numberline {I}Introduction}{1}}
\newlabel{sec:introduction}{{I}{1}}
\@writefile{toc}{\contentsline {section}{\numberline {II}Energy knowledge base}{1}}
\newlabel{sec:semantic}{{II}{1}}
\citation{Amarnath2009}
\citation{Roure03thesemantic}
\citation{Ghijsen}
\citation{rdf}
\citation{owl}
\citation{swrl}
\@writefile{lof}{\contentsline {figure}{\numberline {1}{\ignorespaces  The Semantic Distributed System Infrastructure}}{2}}
\newlabel{fig:semanticDS}{{1}{2}}
\@writefile{toc}{\contentsline {subsection}{\numberline {\unhbox \voidb@x \hbox {II-A}}Basic idea}{2}}
\@writefile{toc}{\contentsline {subsection}{\numberline {\unhbox \voidb@x \hbox {II-B}}Semantic web technologies}{2}}
\@writefile{toc}{\contentsline {subsection}{\numberline {\unhbox \voidb@x \hbox {II-C}}System architecture}{2}}
\newlabel{sec:Architecture}{{\unhbox \voidb@x \hbox {II-C}}{2}}
\citation{Zhao2010}
\citation{energyontology}
\citation{zhao}
\@writefile{lof}{\contentsline {figure}{\numberline {2}{\ignorespaces The Architecture of the Energy Knowledge Base, showing (from bottom to top): The Resource Description Modules, the RDF repositories, and the Query service. }}{3}}
\newlabel{fig:ekb}{{2}{3}}
\@writefile{toc}{\contentsline {section}{\numberline {III}Energy Description Language}{3}}
\newlabel{sec:schema}{{III}{3}}
\@writefile{toc}{\contentsline {subsection}{\numberline {\unhbox \voidb@x \hbox {III-A}}EnergyMetric}{3}}
\@writefile{lof}{\contentsline {figure}{\numberline {3}{\ignorespaces The Energy Description Language - EDL and its three main parts: the EnergyMetric class and subclasses (in yellow), the Monitor Component class and its subclasse (in orange) and the ResourceEbergyDescription and it subclasses (in gray)}}{3}}
\newlabel{fig:edl}{{3}{3}}
\citation{eee}
\citation{sesame}
\citation{jena16}
\citation{sparql}
\citation{prolog}
\@writefile{toc}{\contentsline {subsection}{\numberline {\unhbox \voidb@x \hbox {III-B}}MonitorComponent}{4}}
\@writefile{toc}{\contentsline {subsection}{\numberline {\unhbox \voidb@x \hbox {III-C}}Resource Energy Description}{4}}
\@writefile{toc}{\contentsline {section}{\numberline {IV}Query Service}{4}}
\newlabel{sec:query-service}{{IV}{4}}
\@writefile{toc}{\contentsline {subsection}{\numberline {\unhbox \voidb@x \hbox {IV-A}}Prototype}{4}}
\citation{das-4}
\citation{Daouadji2010}
\citation{Rossello-Busquet2011}
\citation{Shah}
\citation{Rossello-Busquet2011}
\citation{Fensel2010}
\citation{paper-ucse2010}
\@writefile{toc}{\contentsline {subsection}{\numberline {\unhbox \voidb@x \hbox {IV-B}}Performance characteristics}{5}}
\@writefile{lof}{\contentsline {figure}{\numberline {4}{\ignorespaces  Query Response Times for Various-size Triple-Stores }}{5}}
\newlabel{fig:querys}{{4}{5}}
\@writefile{lof}{\contentsline {figure}{\numberline {5}{\ignorespaces Query1 Response Times for Various Number of Clients}}{5}}
\newlabel{fig:resptime-vs-clients-query1}{{5}{5}}
\@writefile{lof}{\contentsline {figure}{\numberline {6}{\ignorespaces Query2 Response Times for Various Number of Clients}}{5}}
\newlabel{fig:resptime-vs-clients-query2}{{6}{5}}
\@writefile{lof}{\contentsline {figure}{\numberline {7}{\ignorespaces Query3 Response Times for Various Number of Clients}}{5}}
\newlabel{fig:resptime-vs-clients-query3}{{7}{5}}
\@writefile{toc}{\contentsline {section}{\numberline {V}Discussion}{5}}
\newlabel{sec:related work}{{V}{5}}
\citation{Meisner}
\citation{Rajamani}
\bibstyle{IEEEtran}
\bibdata{IEEEabrv,eqLib}
\bibcite{greenhost}{1}
\bibcite{Amarnath2009}{2}
\bibcite{Youseff2008}{3}
\bibcite{Roure03thesemantic}{4}
\bibcite{Ghijsen}{5}
\@writefile{toc}{\contentsline {section}{\numberline {VI}Conclusions and future work}{6}}
\newlabel{sec:futurework}{{VI}{6}}
\@writefile{toc}{\contentsline {section}{References}{6}}
\bibcite{rdf}{6}
\bibcite{owl}{7}
\bibcite{swrl}{8}
\bibcite{Zhao2010}{9}
\bibcite{energyontology}{10}
\bibcite{zhao}{11}
\bibcite{eee}{12}
\bibcite{sesame}{13}
\bibcite{jena16}{14}
\bibcite{sparql}{15}
\bibcite{prolog}{16}
\bibcite{das-4}{17}
\bibcite{Daouadji2010}{18}
\bibcite{Rossello-Busquet2011}{19}
\bibcite{Shah}{20}
\bibcite{Fensel2010}{21}
\bibcite{paper-ucse2010}{22}
\bibcite{Meisner}{23}
\bibcite{Rajamani}{24}
